
{
  "canvas": {
    "width": 500,
    "height": 500
  },
  "multilayer": {
      "1":[""],
      "2":["", "back"],
      "3":["", "mid", "back"],
      "4":["", "mid","mid2", "back"]
    },
    "folders":[
      {"name":"necklaces","items":5,"colors":2,"priority":[10,9,2]},
      {"name":"bases","items":3,"colors":4,"priority":[4]},
      {"name":"earrings","items":9,"colors":2,"priority":[7]},
      {"name":"faces","items":6,"colors":2,"priority":[5]},
      {"name":"hairback","items":9,"colors":2,"priority":[6,1]},
      {"name":"hairfront","items":13,"colors":2,"priority":[12]},
      {"name":"shirts","items":9,"colors":2,"priority":[11,8,3]}
    ],
  "bgcolors":[
    {"name":"None", "rgb":[]},
    {"name":"Pink", "rgb":[255, 192, 203]},
    {"name":"PaleVioletRed", "rgb":[219, 112, 147]},
    {"name":"LightCoral", "rgb":[240, 128, 128]},
    {"name":"FireBrick", "rgb":[178,  34,  34]},
    {"name":"Tomato", "rgb":[255,  99,  71]},
    {"name":"DarkOrange", "rgb":[255, 140,   0]},
    {"name":"LemonChiffon", "rgb":[255, 250, 205]},
    {"name":"PaleGoldenrod", "rgb":[238, 232, 170]},
    {"name":"BlanchedAlmond", "rgb":[255, 235, 205]},
    {"name":"BurlyWood", "rgb":[222, 184, 135]},
    {"name":"YellowGreen", "rgb":[154, 205,  50]},
    {"name":"LightGreen", "rgb":[144, 238, 144]},
    {"name":"SeaGreen", "rgb":[46, 139,  87]},
    {"name":"PaleTurquoise", "rgb":[175, 238, 238]},
    {"name":"CadetBlue", "rgb": [95, 158, 160]},
    {"name":"LightBlue", "rgb":[173, 216, 230]},
    {"name":"CornflowerBlue", "rgb":[100, 149, 237]},
    {"name":"Thistle", "rgb":[216, 191, 216]},
    {"name":"MediumPurple", "rgb":[147, 112, 219]},
    {"name":"White", "rgb":[255, 255, 255]},
    {"name":"GhostWhite", "rgb":[248, 248, 255]},
    {"name":"FloralWhite", "rgb":[255, 250, 240]},
    {"name":"AntiqueWhite", "rgb":[250, 235, 215]},
    {"name":"LightGray", "rgb":[211, 211, 211]},
    {"name":"Silver", "rgb":[192, 192, 192]},
    {"name":"Black", "rgb":[0, 0 ,0]}
  ]
}
